time_plasma	plasma	blood
8.63	0.001	0.001
24.23	8.016	5.035
39.23	105.271	69.161
54.23	168.489	109.446
69.23	202.542	132.4
84.23	215.743	140.007
100.43	148.319	98.36
113.63	106.774	68.949
129.23	90.078	52.846
130.43	89.277	52.231
145.43	80.098	44.553
160.43	72.417	41.764
175.43	66.096	38.974
205.43	56.799	36.728
234.23	50.959	34.573
265.43	46.834	34.154
325.43	42.363	33.349
353.63	41.065	32.971
415.43	38.989	31.381
473.63	37.495	29.884
535.43	36.136	29.068
593.63	34.991	28.3
745.43	32.441	26.701
893.63	30.428	25.139
1045.43	28.747	24.023
1193.63	27.396	22.933
1345.43	26.246	22.724
1495.43	25.293	22.517
1645.43	24.483	22.31
1792.43	23.798	22.107
1945.43	23.177	21.621
2095.43	22.639	21.145
2245.43	22.157	20.669
2390.63	21.733	20.208
2545.43	21.319	20.083
2695.43	20.946	19.962
2845.43	20.596	19.84
2989.43	20.279	19.724
3145.43	19.951	19.263
3295.43	19.65	18.821
3445.43	19.359	18.378
3589.43	19.089	17.952
3745.43	18.804	17.922
3895.43	18.538	17.892
4045.43	18.277	17.863
4195.43	18.022	17.833
4345.43	17.773	17.803
4489.43	17.537	17.775
4645.43	17.287	17.507
4795.43	17.05	17.249
4945.43	16.817	16.991
5095.43	16.587	16.733
5245.43	16.361	16.475
5395.43	16.139	16.218
